
2013-11-30 17:03:03 | Login: nico logged in.
2013-11-30 19:54:56 | Login: irfan logged in.
2013-12-01 11:23:48 | Login: irfan logged in.
2013-12-01 15:25:01 | Login: irfan logged in.
2013-12-01 16:57:11 | Login: irfan logged in.
2013-12-01 17:04:11 | Login: irfan logged in.
2013-12-03 12:10:05 | Login: irfan logged in.
2013-12-08 14:01:29 | Login: irfan logged in.
2013-12-09 20:46:39 | Login: irfan logged in.
2013-12-11 11:28:08 | Login: irfan logged in.
2013-12-11 11:28:55 | Login: irfan logged in.
2013-12-12 10:00:13 | Login: irfan logged in.
2013-12-16 16:20:17 | Login: irfan logged in.
2013-12-16 20:41:06 | Login: irfan logged in.
2014-01-03 21:12:19 | Login: irfan logged in.
2014-01-03 23:13:28 | Login: irfan logged in.
2014-01-03 23:17:37 | Login: irfan logged in.
2014-01-05 12:03:26 | Login: irfan logged in.
2014-01-17 09:32:16 | Login: irfan logged in.
2014-01-17 17:29:57 | Login: irfan logged in.
2014-01-19 14:19:19 | Login: irfan logged in.
2014-01-22 15:29:59 | Login: irfan logged in.
2014-01-30 15:07:10 | Login: irfan logged in.
2014-01-31 08:28:42 | Login: irfan logged in.
2014-02-03 23:00:39 | Login: irfan logged in.
2014-03-01 14:45:06 | Login: irfan logged in.
2014-03-01 15:51:01 | Login: irfan logged in.
2014-03-01 16:56:36 | Login: irfan logged in.
2014-03-01 16:57:57 | Login: irfan logged in.
2014-03-01 16:59:03 | Login: irfan logged in.
2014-03-02 16:34:14 | Login: irfan logged in.
2014-03-02 16:40:44 | Login: irfan logged in.
2014-03-02 16:41:07 | Login: irfan logged in.
2014-03-02 17:13:30 | Login: irfan logged in.
2014-03-02 17:40:02 | Login: irfan logged in.
2014-03-02 19:59:21 | Login: irfan logged in.
2014-03-02 20:53:33 | Login: irfan logged in.
2014-03-02 21:04:24 | Login: irfan logged in.
2014-03-02 21:42:16 | Login: irfan logged in.
2014-03-02 21:42:56 | Login: irfan logged in.
2014-03-02 21:51:00 | Login: irfan logged in.
2014-03-05 16:56:30 | Login: irfan logged in.
2014-03-25 18:35:27 | Login: irfan logged in.
2014-04-17 19:29:46 | Login: irfan logged in.
